%YAML 1.1
%TAG !u! tag:unity3d.com,2011:
--- !u!221 &22100000
AnimatorOverrideController:
  m_ObjectHideFlags: 0
  m_PrefabParentObject: {fileID: 0}
  m_PrefabInternal: {fileID: 0}
  m_Name: GlosaryPanelOverride
  m_Controller: {fileID: 9100000, guid: a6f0731fe8f35f84bbfab3dd52c0aa93, type: 2}
  m_Clips:
  - m_OriginalClip: {fileID: 7400000, guid: d888389104ca41f45bc87ed2b8b30ea5, type: 2}
    m_OverrideClip: {fileID: 7400000, guid: b4a5d52a44e4d314b9204e15faef8ad3, type: 2}
  - m_OriginalClip: {fileID: 7400000, guid: a2a76beb62d9beb4eb14031691bd529a, type: 2}
    m_OverrideClip: {fileID: 7400000, guid: 28588661676042943ba1fcf0cc823380, type: 2}
